{
      "EN": {
            "seiteTitel":"Credit Transfer, Department 12, University of Marburg",
            "seiteUeberschrift":"Credit Transfer",
            "impressum":"Legal Notice",
            "datenschutz":"Privacy Statement",
            "vorname": "First name",
            "nachname": "Family name",
            "adresse": "Address",
            "matrikelNummer": "Student number",
            "email": "E-mail",
            "nextStep": "Continue",
            "land": "Former Country",
            "alterStudiengang": "Former Degree Program",
            "studiengang": "New Degree Program",
            "notenSystem": "Former Grading System",
            "einstufungFachsemester": "Application for a higher semester",
            "einstufungFachsemesterText": "I require a written confirmation to enter a higher semester.",
            "step3Ueberschrift": "The following modules should be transfered:",
            "erbrachteModuleTitel": "Previously taken modules*",
            "noteTitel": "Grade*",
            "lpTitel": "ECTS points*",
            "fehlversucheTitel": "Failed attempts",
            "mehrErfahren": "More information",
            "addModul": "Add entry",
            "step4Ueberschrift": "Here you can assign your previously taken modules (on the right) to the existing modules (on the left) by drag-and-drop. If a previously taken module should be transfered to several of the new modules or vice versa, you can select the percentage of the transfer for each module.",
            "erbrachtePruefungsleistungen": "Previously taken exams/modules*",
            "ModulLp":"ECTS*",
            "vorschlagenesModul": "My proposal for the transfer*",
            "anteil": "Percentage",
            "vorgeschlageneNote": "Converted grade",
            "versucheTitel": "Failed attempts",
            "zustimmungTitle": "Confirmation by the Board of Examiners",
            "sumeLp":"<span class='neueSummeLp' ></span > ETCS fom <span class='summeLp' ></span > ETCS  können anerkannt werden",
            "nichtAkzeptierteModule": "Not transferable modules",
            "step5Ueberschrift": "Here you can check your entries again. Afterwards, you can save the data via the export function (above). Please send the exported data via E-mail to the responsible <a href='https://www.uni-marburg.de/fb12/studium/pruefbuero' target=_blank>Chair of the Examination Board</a>. The e-mail should include a link to your transcript for the previous degree program and a link to the descriptions of the modules."
      },
      "DE": {
            "seiteTitel":"Anerkennung von Prüfungsleistungen, Fachbereich 12, Philipps-Universität Marburg",
            "seiteUeberschrift":"Anerkennung von Prüfungsleistungen",
            "impressum":"Impressum",
            "datenschutz":"Datenschutz",
            "vorname": "Vorname",
            "nachname": "Nachname",
            "adresse": "Adresse",
            "matrikelNummer": "Matrikelnummer",
            "email": "Email",
            "nextStep": "Weiter",
            "land": "Bisheriges Land",
            "alterStudiengang": "Bisheriger Studiengang",
            "studiengang": "Neuer Studiengang",
            "notenSystem": "Bisheriges Notensystem",
            "einstufungFachsemester": "Einstufung in ein höheres Fachsemester",
            "einstufungFachsemesterText": "Ich benötige eine Einstufungsbescheinigung.",
            "step3Ueberschrift": "Folgende Module sollen anerkannt werden:",
            "erbrachteModuleTitel": "Erbrachte Module*",
            "noteTitel": "Note*",
            "lpTitel": "ECTS-Punkte*",
            "fehlversucheTitel": "Fehlversuche",
            "mehrErfahren": "Mehr Informationen",
            "addModul": "Eintrag hinzufügen",
            "step4Ueberschrift": "Hier können Sie Ihre bisherigen Module (rechts) den Modulen des neuen Studiengangs (links) durch Ziehen zuordnen. Wenn ein Modul für mehrere Module anerkannt werden soll, muss eine prozentuale Zuordnung angegeben werden.",
            "erbrachtePruefungsleistungen": "Erbrachte Prüfungsleistungen/Module*",
            "ModulLp":"ECTS*",
            "vorschlagenesModul": "Mein Vorschlag für die Anrechnung*",
            "anteil": "Prozent",
            "vorgeschlageneNote": "Umgerechnete Note",
            "versucheTitel": "Fehlversuche",
            "zustimmungTitle": "Bestätigung durch den Prüfungsausschuss",
            "sumeLp":"<span class='neueSummeLp' ></span > ETCS von <span class='summeLp' ></span > ETCS  können anerkannt werden",
            "nichtAkzeptierteModule": "Nicht anrechenbare Module",
		"step5Ueberschrift": "Kontrollieren Sie hier noch einmal Ihre Eingaben. Anschließend können Sie die Daten über die Export-Funktion (oben) abspeichern. Zur Anerkennung schicken Sie die exportierten Daten per E-mail an den zuständigen <a href='https://www.uni-marburg.de/fb12/studium/pruefbuero' target=_blank>Vorsitzenden des Prüfungsausschusses</a>. Die E-mail sollte ein Link auf Ihr Notentranskript des bisherigen Studiengangs und einen Link auf die Modulbeschreibungen beinhalten."
      }
}